{
  "build": {
    "preview": {
      "android": {
        "buildType": "apk"
      }
    },
    "preview2": {
      "android": {
        "gradleCommand": ":app:assembleRelease"
      }
    },
    "preview3": {
      "developmentClient": true
    },
    "production": {}
  },
  "cli": {
    "version": ">= 0.51.0",
    "requireCommit": false
  }
}
